LEarning with 100 pengkun 20, 50, 80 and combining with opposing
Done 20
Done 50
Done 80
Opposing vs random: 750 wins, 105 losses, 145 draws
Pengkun(20) vs random: 626 wins, 150 losses, 224 draws
Pengkun(50) vs random: 777 wins, 78 losses, 145 draws
Pengkun(80) vs random: 807 wins, 77 losses, 116 draws
